…
  rbind( clusters
   , tibble::tibble( start = min(pos)
            ,   end = max(pos)
            , min_d = min_density
            , max_d = params$min_density))
}
paraclu_twoargs_tibble(l$pos, l$score)
```

```
## # A tibble: 3,393 × 4
##       start      end     min_d  max_d
##       <int>    <int>     <dbl>  <dbl>
##  1 26050540 26050540 0.0000655 Inf   
##  2 26391265 26391265 0.000406  Inf   
##  3 26446219 26446219 0.00302   Inf   
##  4 26453605 26453605 1.65      Inf   
##  5 26453632 26453632 3.08      Inf   
##  6 26453643 26453643 5.58      Inf   
##  7 26453647 26453647 5.58      Inf   
##  8 26453643 26453647 3.08        5.58
##  9 26453632 26453647 3.08        2.97
## 10 26453661 26453661 5.58      Inf   
## # ℹ 3,383 more rows
```
…
